Acquisition Length,[7.0]
Acquisition Number,1
Acquisition Start,[7.699999999999999]
Averaging,1
Echo Number,1
Kspace Index,"[[[[0, 0]], [[1, 0]], [[2, 0]], [[3, 0]], [[4, 0]], [[5, 0]], [[6, 0]], [[7, 0]], [[8, 0]], [[9, 0]], [[10, 0]], [[11, 0]], [[12, 0]], [[13, 0]], [[14, 0]], [[15, 0]], [[16, 0]], [[17, 0]], [[18, 0]], [[19, 0]], [[20, 0]], [[21, 0]], [[22, 0]], [[23, 0]], [[24, 0]], [[25, 0]], [[26, 0]], [[27, 0]], [[28, 0]], [[29, 0]], [[30, 0]], [[31, 0]], [[32, 0]], [[33, 0]], [[34, 0]], [[35, 0]], [[36, 0]], [[37, 0]], [[38, 0]], [[39, 0]], [[40, 0]], [[41, 0]], [[42, 0]], [[43, 0]], [[44, 0]], [[45, 0]], [[46, 0]], [[47, 0]], [[48, 0]], [[49, 0]], [[50, 0]], [[51, 0]], [[52, 0]], [[53, 0]], [[54, 0]], [[55, 0]], [[56, 0]], [[57, 0]], [[58, 0]], [[59, 0]], [[60, 0]], [[61, 0]], [[62, 0]], [[63, 0]], [[64, 0]], [[65, 0]], [[66, 0]], [[67, 0]], [[68, 0]], [[69, 0]], [[70, 0]], [[71, 0]], [[72, 0]], [[73, 0]], [[74, 0]], [[75, 0]], [[76, 0]], [[77, 0]], [[78, 0]], [[79, 0]], [[80, 0]], [[81, 0]], [[82, 0]], [[83, 0]], [[84, 0]], [[85, 0]], [[86, 0]], [[87, 0]], [[88, 0]], [[89, 0]], [[90, 0]], [[91, 0]], [[92, 0]], [[93, 0]], [[94, 0]], [[95, 0]], [[96, 0]], [[97, 0]], [[98, 0]], [[99, 0]], [[100, 0]], [[101, 0]], [[102, 0]], [[103, 0]], [[104, 0]], [[105, 0]], [[106, 0]], [[107, 0]], [[108, 0]], [[109, 0]], [[110, 0]], [[111, 0]], [[112, 0]], [[113, 0]], [[114, 0]], [[115, 0]], [[116, 0]], [[117, 0]], [[118, 0]], [[119, 0]], [[120, 0]], [[121, 0]], [[122, 0]], [[123, 0]], [[124, 0]], [[125, 0]], [[126, 0]], [[127, 0]]]]"
Oblique Angle,"[0, 90, 180, 90]"
Offset,"[0.0, 0.0, 0.0, 0.0]"
Phase Amplitude,[50.62009617818276]
Phase Crusher Amplitude,0
Phase Direction,[1]
Phase Index,"[0, 1, 2, 3, 4, 5, 6, 7, 8, 9, 10, 11, 12, 13, 14, 15, 16, 17, 18, 19, 20, 21, 22, 23, 24, 25, 26, 27, 28, 29, 30, 31, 32, 33, 34, 35, 36, 37, 38, 39, 40, 41, 42, 43, 44, 45, 46, 47, 48, 49, 50, 51, 52, 53, 54, 55, 56, 57, 58, 59, 60, 61, 62, 63, 64, 65, 66, 67, 68, 69, 70, 71, 72, 73, 74, 75, 76, 77, 78, 79, 80, 81, 82, 83, 84, 85, 86, 87, 88, 89, 90, 91, 92, 93, 94, 95, 96, 97, 98, 99, 100, 101, 102, 103, 104, 105, 106, 107, 108, 109, 110, 111, 112, 113, 114, 115, 116, 117, 118, 119, 120, 121, 122, 123, 124, 125, 126, 127]"
Phase Length,[2.6999999999999984]
Phase Lobes Amplitude,[0.0]
Phase Lobes Length,[0.0]
Phase Number,1
Phase Pattern,"[1.0, 0.984251968503937, 0.9685039370078741, 0.952755905511811, 0.937007874015748, 0.9212598425196851, 0.905511811023622, 0.889763779527559, 0.8740157480314961, 0.8582677165354331, 0.8425196850393701, 0.8267716535433071, 0.8110236220472441, 0.7952755905511811, 0.7795275590551181, 0.7637795275590551, 0.7480314960629921, 0.7322834645669292, 0.7165354330708662, 0.7007874015748031, 0.6850393700787402, 0.6692913385826772, 0.6535433070866141, 0.6377952755905512, 0.6220472440944882, 0.6062992125984252, 0.5905511811023623, 0.5748031496062992, 0.5590551181102362, 0.5433070866141733, 0.5275590551181102, 0.5118110236220472, 0.49606299212598426, 0.4803149606299213, 0.46456692913385833, 0.44881889763779526, 0.4330708661417323, 0.4173228346456693, 0.40157480314960625, 0.3858267716535433, 0.3700787401574803, 0.35433070866141736, 0.3385826771653544, 0.3228346456692913, 0.30708661417322836, 0.2913385826771654, 0.2755905511811023, 0.25984251968503935, 0.2440944881889764, 0.22834645669291342, 0.21259842519685046, 0.19685039370078738, 0.18110236220472442, 0.16535433070866146, 0.14960629921259838, 0.13385826771653542, 0.11811023622047245, 0.10236220472440949, 0.08661417322834652, 0.07086614173228345, 0.055118110236220486, 0.03937007874015752, 0.023622047244094446, 0.007874015748031482, -0.007874015748031482, -0.023622047244094446, -0.03937007874015741, -0.055118110236220375, -0.07086614173228334, -0.08661417322834652, -0.10236220472440949, -0.11811023622047245, -0.13385826771653542, -0.14960629921259838, -0.16535433070866135, -0.1811023622047243, -0.1968503937007875, -0.21259842519685046, -0.22834645669291342, -0.2440944881889764, -0.25984251968503935, -0.2755905511811023, -0.2913385826771653, -0.30708661417322825, -0.3228346456692912, -0.3385826771653544, -0.35433070866141736, -0.3700787401574803, -0.3858267716535433, -0.40157480314960625, -0.4173228346456692, -0.4330708661417322, -0.44881889763779537, -0.46456692913385833, -0.4803149606299213, -0.49606299212598426, -0.5118110236220472, -0.5275590551181102, -0.5433070866141732, -0.5590551181102361, -0.5748031496062991, -0.5905511811023623, -0.6062992125984252, -0.6220472440944882, -0.6377952755905512, -0.6535433070866141, -0.6692913385826771, -0.68503937007874, -0.7007874015748032, -0.7165354330708662, -0.7322834645669292, -0.7480314960629921, -0.7637795275590551, -0.7795275590551181, -0.795275590551181, -0.811023622047244, -0.826771653543307, -0.8425196850393701, -0.8582677165354331, -0.8740157480314961, -0.889763779527559, -0.905511811023622, -0.921259842519685, -0.9370078740157479, -0.9527559055118111, -0.9685039370078741, -0.984251968503937, -1.0]"
Phase Start,[4.6000000000000005]
Phase Steps,128
Pulse Angle,[90.0]
Pulse Frequency,6000000
Pulse Length,[4.0]
Pulse Number,1
Pulse Pattern,[0.0]
Pulse Start,[0.2]
Pulse Value 90,1.0
Read Amplitude,"[-1.4187192118226606, 1.1428571428571428]"
Read Crusher Amplitude,0
Read Length,"[2.6999999999999984, 7.0]"
Read Lobes Amplitude,"[0.0, 0.0]"
Read Lobes Length,"[0.0, 0.0]"
Read Number,2
Read Start,"[4.6000000000000005, 7.699999999999999]"
Rise Time,0.2
Sequence Type,Gradient Echo
Slice Amplitude,"[3.5, -2.5344827586206913]"
Slice Crusher Amplitude,0
Slice Index,"[0, 0, 0, 0, 0, 0, 0, 0, 0, 0, 0, 0, 0, 0, 0, 0, 0, 0, 0, 0, 0, 0, 0, 0, 0, 0, 0, 0, 0, 0, 0, 0, 0, 0, 0, 0, 0, 0, 0, 0, 0, 0, 0, 0, 0, 0, 0, 0, 0, 0, 0, 0, 0, 0, 0, 0, 0, 0, 0, 0, 0, 0, 0, 0, 0, 0, 0, 0, 0, 0, 0, 0, 0, 0, 0, 0, 0, 0, 0, 0, 0, 0, 0, 0, 0, 0, 0, 0, 0, 0, 0, 0, 0, 0, 0, 0, 0, 0, 0, 0, 0, 0, 0, 0, 0, 0, 0, 0, 0, 0, 0, 0, 0, 0, 0, 0, 0, 0, 0, 0, 0, 0, 0, 0, 0, 0, 0, 0]"
Slice Length,"[4.0, 2.6999999999999984]"
Slice Lobes Amplitude,"[0, 0.0]"
Slice Lobes Length,"[0, 0.0]"
Slice Number,2
Slice Pattern,[1.0]
Slice Start,"[0.2, 4.6000000000000005]"
Slice Steps,1
TE,9.0
TI,1.0
TR,300
Three Dimensional,0
